<?xml version="1.0" encoding="utf-8"?>
<!-- Generator: Adobe Illustrator 18.1.0, SVG Export Plug-In . SVG Version: 6.00 Build 0)  -->
<!DOCTYPE svg PUBLIC "-//W3C//DTD SVG 1.1//EN" "http://www.w3.org/Graphics/SVG/1.1/DTD/svg11.dtd">
<svg version="1.1" id="Layer_1" xmlns="http://www.w3.org/2000/svg" xmlns:xlink="http://www.w3.org/1999/xlink" x="0px" y="0px"
	 viewBox="-0.1 332.8 612.4 126.7" xml:space="preserve">
   <g>
<path id="preview-left-bottom" fill="#86412B" d="M469.9,416c97.1-2,139.7-7.4,139.7-7.4l2.7,33.2c0,0-254.1,16.6-318.7,17.6
	c-64.3,1-248.3,0.3-293.3-20c0,0,2.4-22.7,0-33.5c24.7,7.1,43.3,11.5,136.7,15.9C230.4,425.4,372.5,418,469.9,416z"/>
<path id="preview-left-front" fill="#FF6B00" d="M98.1,403.4c107.9,3.4,206.7,10.8,286.9,5.8c0,0,72.4-2.7,118.4-4.4
	c46-1.7,101.5-3.4,105.9,4.4c0,0-42.3,5.4-139.7,7.4c-97.1,2-239.5,9.8-332.9,5.4S24.7,413.2,0,406.1
	C0.3,406.5-9.5,400.4,98.1,403.4z"/>
<path id="preview-left-strap-bottom" fill="#062E2C" d="M237.5,364.5c-37.2-13.2-76.5-28.4-99.5-30.8c1.4-0.3,2.7-0.3,4.1-0.7
	c15.2-1.7,48,4.7,82.2,17.3c34.2,12.2,71.7,30.4,115.7,37.6c33.2,5.1,53.5,12.9,61.6,15.6c0,0-32.5-8.1-80.9-15.6
	C300.4,384.5,268.6,375.4,237.5,364.5z"/>
<path id="preview-left-strap-front" fill="#044437" d="M100.8,350.7c4.7-5.4,22.7-14.2,37.2-16.9c23,2.4,62.2,17.6,99.5,30.8
	c31.1,10.8,62.9,20,82.9,23c48.7,7.4,80.9,15.6,80.9,15.6s33.2,9.8,36.2,10.8c0,0-15.6,2.4-26.7,0.7c0,0-22.3-3.7-44.7-4.4
	c-22.3-0.7-75.1-5.4-109.3-12.9s-67.7-18.9-134-47C107.2,343.9,100.8,350.7,100.8,350.7z"/>
<path id="preview-left-strap-connector" fill="#062E2C" d="M102.2,359.8c1.7-4.4-6.4-3.4-1.4-9.5c0,0,6.4-6.4,22,0
	c0,0-6.4,3.7-14.2,57.5c0,0-6.1,2-17.3,0C91.3,407.8,94.7,377.1,102.2,359.8z"/>
  </g>

</svg>
