<?xml version="1.0" encoding="utf-8"?>
<!DOCTYPE svg PUBLIC "-//W3C//DTD SVG 1.1//EN" "http://www.w3.org/Graphics/SVG/1.1/DTD/svg11.dtd">
<svg version="1.1" id="Layer_1" xmlns="http://www.w3.org/2000/svg" xmlns:xlink="http://www.w3.org/1999/xlink" x="0px" y="0px"
	 viewBox="-0.1 332.8 612.4 126.7" xml:space="preserve">
<g>
    <path id="preview-left-bottom" fill="#86412B" d="M469.9,416c97.1-2,139.7-7.4,139.7-7.4l2.7,33.2c0,0-254.1,16.6-318.7,17.6
        c-64.3,1-248.3,0.3-293.3-20c0,0,2.4-22.7,0-33.5c24.7,7.1,43.3,11.5,136.7,15.9C230.4,425.4,372.5,418,469.9,416z"/>
    <path id="preview-left-front" fill="#FF6B00" d="M98.1,403.4c107.9,3.4,206.7,10.8,286.9,5.8c0,0,72.4-2.7,118.4-4.4
        c46-1.7,101.5-3.4,105.9,4.4c0,0-42.3,5.4-139.7,7.4c-97.1,2-239.5,9.8-332.9,5.4S24.7,413.2,0,406.1
        C0.3,406.5-9.5,400.4,98.1,403.4z"/>
    <image id="strap" xlink:href="../straps/men1a-side-green.png" x="0" y="300" height="120px" width="800px"/>
</g>

</svg>
