<?xml version="1.0" encoding="utf-8"?>
<!-- Generator: Adobe Illustrator 18.1.0, SVG Export Plug-In . SVG Version: 6.00 Build 0)  -->
<!DOCTYPE svg PUBLIC "-//W3C//DTD SVG 1.1//EN" "http://www.w3.org/Graphics/SVG/1.1/DTD/svg11.dtd">
<svg version="1.1" id="Layer_1" xmlns="http://www.w3.org/2000/svg" xmlns:xlink="http://www.w3.org/1999/xlink" x="0px" y="0px"
	 viewBox="0 0 40.3 35.1" enable-background="new 0 0 40.3 35.1" xml:space="preserve">
<g>
	<path fill="none" stroke="#FFFFFF" stroke-width="4" stroke-miterlimit="10" d="M33.7,7.4c-7.2-7.2-19-7.2-26.2,0
		c-7.2,7.2-7.2,19,0,26.2"/>
	<polygon fill="#FFFFFF" points="40.3,0.9 40.3,14 27.1,14 	"/>
</g>
</svg>
