<?xml version="1.0" encoding="utf-8"?>
<!-- Generator: Adobe Illustrator 18.0.0, SVG Export Plug-In . SVG Version: 6.00 Build 0)  -->
<!DOCTYPE svg PUBLIC "-//W3C//DTD SVG 1.1//EN" "http://www.w3.org/Graphics/SVG/1.1/DTD/svg11.dtd">
<svg version="1.1" xmlns="http://www.w3.org/2000/svg" xmlns:xlink="http://www.w3.org/1999/xlink" x="0px" y="0px"
	 viewBox="0 0 300 300" enable-background="new 0 0 300 300" xml:space="preserve">
<g id="BG">
</g>
<g id="BG_Texture">
</g>
<g id="Slipper_1">
</g>
<g id="Slipper_2">
</g>
<g id="Masterpiece_Container">
</g>
<g id="BTN:_Create">
</g>
<g id="BTN:_Create_LOAD" display="none">
</g>
<g id="BTN:_Signup">
</g>
<g id="Logo">
</g>
<g id="Modal:_Login" display="none">
</g>
<g id="Modal:_LoadLogin">
	<g>
		<path fill="#FFFFFF" d="M300,279c0,11.5-9.5,21-21,21H21c-11.5,0-21-9.5-21-21V21C0,9.5,9.5,0,21,0h258c11.5,0,21,9.5,21,21V279z"
			/>
	</g>
	<path fill="#E6E7E8" d="M247.1,52.9c-24.8-24.8-59.2-40.2-97.1-40.2S77.8,28.1,52.9,52.9C28.1,77.8,12.7,112.1,12.7,150
		s15.4,72.2,40.2,97.1c24.8,24.8,59.2,40.2,97.1,40.2s72.2-15.4,97.1-40.2c24.8-24.8,40.2-59.2,40.2-97.1S271.9,77.8,247.1,52.9z
		 M228.9,228.9c-20.2,20.2-48.1,32.7-78.9,32.7c-30.8,0-58.7-12.5-78.9-32.7c-20.2-20.2-32.7-48.1-32.7-78.9
		c0-30.8,12.5-58.7,32.7-78.9c20.2-20.2,48.1-32.7,78.9-32.7c30.8,0,58.7,12.5,78.9,32.7c20.2,20.2,32.7,48.1,32.7,78.9
		C261.6,180.8,249.1,208.7,228.9,228.9z"/>
</g>
<g id="Modal:_LoadLogin_2">
	<rect x="-850" y="-225" opacity="0.6" fill="none" width="2000" height="1250"/>
	<text transform="matrix(1 0 0 1 77.2378 155.939)" fill="#58595B" font-family="'Lato-Light'" font-size="30.2494">Signing in...</text>
	<path fill="#FFDD00" d="M228.9,71.1l18.2-18.2c-24.8-24.8-59.2-40.2-97.1-40.2v25.7C180.8,38.4,208.7,50.9,228.9,71.1z"/>
	<path fill="#E2231A" d="M150,261.6v25.7c37.9,0,72.2-15.4,97.1-40.2l-18.2-18.2C208.7,249.1,180.8,261.6,150,261.6z"/>
	<path fill="#0075C9" d="M38.4,150H12.7c0,37.9,15.4,72.2,40.2,97.1l18.2-18.2C50.9,208.7,38.4,180.8,38.4,150z"/>
	<path fill="#39B54A" d="M150,38.4V12.7c-37.9,0-72.2,15.4-97.1,40.2l18.2,18.2C91.3,50.9,119.2,38.4,150,38.4z"/>
	<path fill="#5AB7B2" d="M71.1,71.1L52.9,52.9C28.1,77.8,12.7,112.1,12.7,150h25.7C38.4,119.2,50.9,91.3,71.1,71.1z"/>
	<path fill="#77226C" d="M71.1,228.9l-18.2,18.2c24.8,24.8,59.2,40.2,97.1,40.2v-25.7C119.2,261.6,91.3,249.1,71.1,228.9z"/>
	<path fill="#FF6B00" d="M261.6,150c0,30.8-12.5,58.7-32.7,78.9l18.2,18.2c24.8-24.8,40.2-59.2,40.2-97.1H261.6z"/>
	<path fill="#FFA400" d="M261.6,150h25.7c0-37.9-15.4-72.2-40.2-97.1l-18.2,18.2C249.1,91.3,261.6,119.2,261.6,150z"/>
	<g>
		<circle fill="#39B54A" cx="150" cy="150" r="100.7"/>
		<linearGradient id="SVGID_1_" gradientUnits="userSpaceOnUse" x1="224.8229" y1="217.2962" x2="164.8046" y2="156.7975">
			<stop  offset="0" style="stop-color:#000000;stop-opacity:0"/>
			<stop  offset="0.9118" style="stop-color:#000000;stop-opacity:0.9118"/>
			<stop  offset="1" style="stop-color:#000000"/>
		</linearGradient>
		<path opacity="0.2" fill="url(#SVGID_1_)" d="M169.8,248.8c44.2-8.8,78-46.6,80.7-92.8l-37.4-37.4L168,155.9l-41.6,49.4
			L169.8,248.8z"/>
		<polygon fill="#FFFFFF" points="126.4,205.4 87.2,166.1 99.9,153.4 126.4,179.9 200.5,105.9 213.2,118.6 		"/>
	</g>
	<rect x="-850" y="-225" fill="none" width="2000" height="1250"/>
</g>
<g id="Keyboard" display="none">
</g>
</svg>
